Actividad 4:
https://www.loom.com/share/5d0ed876eb63464fb138850583e7f619
https://www.loom.com/share/1d45c9670f1e4a61bfa898ee2d061a32

Gestionar pedido de un cliente:
https://www.loom.com/share/54b60cb835bc491a844b8cadf6c1240a

